{
      "Hostname": "",
      "Domainname": "",
      "User": "",
      "AttachStdin": true,
      "AttachStdout": true,
      "AttachStderr": true,
      "PortSpecs": null,
      "ExposedPorts": null,
      "Tty": true,
      "OpenStdin": true,
      "StdinOnce": true,
      "Env": null,
      "Cmd": [
            "/bin/bash",
            "-c",
            "mount dev/rxd0 home/me1kd/docker_shared \u0026\u0026 /home/virtual_configurable/virtual_configurable/env/bin/python /home/virtual_configurable/virtual_configurable/virtual_configurable/manage.py runserver 0.0.0.0:8000"
        ],
      "Image": "<image_name>",
      "Volumes": null,
      "WorkingDir": "",
      "Entrypoint": null,
      "NetworkDisabled": false,
      "MacAddress": "",
      "OnBuild": null,
      "Labels": {},
      "HostConfig": {
         "Binds": [
            "/dev/rxd0:/dev/rxd0"
          ],
         "Links": [],
         "LxcConf": {},
         "Memory": 0,
         "MemorySwap": 0,
         "CpuShares": 0,
         "CpuPeriod": 0,
         "CpusetCpus": "",
         "CpusetMems": "",
         "BlkioWeight": 300,
         "OomKillDisable": false,
         "PortBindings": {
            "8000/tcp": [
              {
                "HostIp": "127.0.0.1",
                "HostPort": "<port>"
              }
            ]
          },
         "PublishAllPorts": false,
         "Privileged": true,
         "ReadonlyRootfs": false,
         "Dns": null,
         "DnsSearch": null,
         "ExtraHosts": null,
         "VolumesFrom": [],
         "CapAdd": null,
         "CapDrop": null,
         "RestartPolicy": { "Name": "", "MaximumRetryCount": 0 },
         "NetworkMode": "bridge",
         "Devices": [],
         "Ulimits": null,
         "LogConfig": { "Type": "json-file", "Config": {} },
         "SecurityOpt": [],
         "CgroupParent": ""
      }
  }